Diagnóstico de coeficientes Logit grandes
========================================

1. Coeficientes problemáticos
-----------------------------
# A tibble: 40 × 9
   model_family controls model                term  coef_logit odds_ratio abs_coef big_coef big_or
   <chr>        <chr>    <chr>                <chr>      <dbl>      <dbl>    <dbl> <lgl>    <lgl> 
 1 triple       No       mun_pre_all_share_h… post…     -52.5    1.60e-23    52.5  TRUE     TRUE  
 2 triple       No       mun_pre_all_mean_ed… post…      36.5    7.11e+15    36.5  TRUE     TRUE  
 3 triple       No       mun_pre_all_share_h… post…      26.3    2.54e+11    26.3  TRUE     TRUE  
 4 triple       No       mun_pre_all_share_e… post…      16.8    1.95e+ 7    16.8  TRUE     TRUE  
 5 triple       No       mun_pre_all_share_v… post…      15.6    5.75e+ 6    15.6  TRUE     TRUE  
 6 triple       No       mun_pre_all_share_h… post…      14.9    2.94e+ 6    14.9  TRUE     TRUE  
 7 triple       No       mun_pre_all_share_i… post…     -13.2    1.79e- 6    13.2  TRUE     TRUE  
 8 triple       No       mun_pre_all_share_d… post…       9.42   1.23e+ 4     9.42 TRUE     TRUE  
 9 triple       No       mun_pre_all_share_e… post…      -8.68   1.71e- 4     8.68 TRUE     TRUE  
10 triple       No       mun_pre_all_share_h… post…      -7.34   6.52e- 4     7.34 TRUE     TRUE  
# ℹ 30 more rows
# ℹ Use `print(n = ...)` to see more rows
…
